﻿{
  "_links": {
    "next": {
      "href": "https://example.com/one?start=10&limit=10"
    },
    "prev": null,
    "self": {
      "href": "https://example.com/one?start=0&limit=10"
    },
    "up": {
      "href": "https://example.com/"
    }
  },
  "items": [
    {
      "_links": {
        "self": {
          "href": "https://example.com/one/A"
        }
      },
      "item": "A"
    },
    {
      "_links": {
        "self": {
          "href": "https://example.com/one/B"
        }
      },
      "item": "B"
    }
  ],
  "pi": 3.141592654, 
  "limit": 10,
  "start": 0,
  "total": 100
}
